TR:inSilico:CellLine,TR:loLIG1:Stimuli,TR:hiLIG1:Stimuli,TR:loLIG2:Stimuli,TR:hiLIG2:Stimuli,TR:AB1i,TR:AB2i,TR:AB3i,TR:AB4i,TR:AB5i,TR:AB6i,TR:AB7i,TR:AB8i,TR:AB9i,TR:AB10i,TR:AB11i,TR:AB12i,TR:AB13i,TR:AB14i,TR:AB15i,TR:AB16i,TR:AB17i,TR:AB18i,TR:AB19i,TR:AB20i,DA:ALL,DV:AB1,DV:AB2,DV:AB3,DV:AB4,DV:AB5,DV:AB6,DV:AB7,DV:AB8,DV:AB9,DV:AB10,DV:AB11,DV:AB12,DV:AB13,DV:AB14,DV:AB15,DV:AB16,DV:AB17,DV:AB18,DV:AB19,DV:AB20
1,1,0,0,0,0,0,0,0,1,0,0,0,0,0,0,0,0,0,0,0,0,0,0,0,0,469.052635,469.052635,473.660075,469.052635,NA,469.052635,469.052635,469.052635,544.397984,469.052635,469.052635,469.052635,525.553195,469.052635,469.052635,469.052635,469.052635,794.42565,469.052635,469.052635
1,0,1,0,0,0,0,0,0,1,0,0,0,0,0,0,0,0,0,0,0,0,0,0,0,0,469.052635,469.052635,473.660075,469.052635,NA,469.052635,469.052635,469.052635,544.397984,469.052635,469.052635,469.052635,525.553195,469.052635,469.052635,469.052635,469.052635,794.42565,469.052635,469.052635
1,0,0,1,0,0,0,0,0,1,0,0,0,0,0,0,0,0,0,0,0,0,0,0,0,0,469.052635,469.052635,473.660075,469.052635,NA,469.052635,469.052635,469.052635,544.397984,469.052635,469.052635,469.052635,525.553195,469.052635,469.052635,469.052635,469.052635,794.42565,469.052635,469.052635
1,0,0,0,1,0,0,0,0,1,0,0,0,0,0,0,0,0,0,0,0,0,0,0,0,0,469.052635,469.052635,473.660075,469.052635,NA,469.052635,469.052635,469.052635,544.397984,469.052635,469.052635,469.052635,525.553195,469.052635,469.052635,469.052635,469.052635,794.42565,469.052635,469.052635
1,1,0,1,0,0,0,0,0,1,0,0,0,0,0,0,0,0,0,0,0,0,0,0,0,0,469.052635,469.052635,473.660075,469.052635,NA,469.052635,469.052635,469.052635,544.397984,469.052635,469.052635,469.052635,525.553195,469.052635,469.052635,469.052635,469.052635,794.42565,469.052635,469.052635
1,1,0,0,1,0,0,0,0,1,0,0,0,0,0,0,0,0,0,0,0,0,0,0,0,0,469.052635,469.052635,473.660075,469.052635,NA,469.052635,469.052635,469.052635,544.397984,469.052635,469.052635,469.052635,525.553195,469.052635,469.052635,469.052635,469.052635,794.42565,469.052635,469.052635
1,0,1,1,0,0,0,0,0,1,0,0,0,0,0,0,0,0,0,0,0,0,0,0,0,0,469.052635,469.052635,473.660075,469.052635,NA,469.052635,469.052635,469.052635,544.397984,469.052635,469.052635,469.052635,525.553195,469.052635,469.052635,469.052635,469.052635,794.42565,469.052635,469.052635
1,0,1,0,1,0,0,0,0,1,0,0,0,0,0,0,0,0,0,0,0,0,0,0,0,0,469.052635,469.052635,473.660075,469.052635,NA,469.052635,469.052635,469.052635,544.397984,469.052635,469.052635,469.052635,525.553195,469.052635,469.052635,469.052635,469.052635,794.42565,469.052635,469.052635
1,1,0,0,0,0,0,0,0,1,0,0,0,0,0,0,0,0,0,0,0,0,0,0,0,1,469.052635,469.052635,473.660075,469.460134,NA,538.278591,469.052635,493.864635,544.397938,469.992491,469.058399,469.642852,525.553195,469.052635,469.079956,479.677742,487.947102,794.42565,469.053128,470.324761
1,0,1,0,0,0,0,0,0,1,0,0,0,0,0,0,0,0,0,0,0,0,0,0,0,1,469.062415,475.560835,473.660075,491.765133,NA,785.126373,483.958095,877.588984,543.8396,491.709857,557.166758,960.735635,525.553195,481.313107,645.059769,3038.205975,499.902582,794.42565,736.090043,499.971008
1,0,0,1,0,0,0,0,0,1,0,0,0,0,0,0,0,0,0,0,0,0,0,0,0,1,469.052635,469.052635,473.660075,469.052635,NA,469.317705,469.052635,469.153896,544.397983,469.052635,469.052635,469.052635,525.553195,469.052635,469.052635,469.052635,469.1291,794.42565,469.052635,469.052635
1,0,0,0,1,0,0,0,0,1,0,0,0,0,0,0,0,0,0,0,0,0,0,0,0,1,469.052635,469.052635,473.660075,469.061739,NA,477.772158,469.052635,472.605006,544.397978,469.052635,469.053407,469.055692,525.553195,469.052635,469.055965,469.274224,471.469195,794.42565,469.052635,469.660759
1,1,0,1,0,0,0,0,0,1,0,0,0,0,0,0,0,0,0,0,0,0,0,0,0,1,469.052635,469.052635,473.660075,469.450129,NA,537.744872,469.052635,493.602875,544.397938,469.982631,469.05833,469.640818,525.553195,469.052635,469.079776,479.45206,487.829581,794.42565,469.053105,470.31141
1,1,0,0,1,0,0,0,0,1,0,0,0,0,0,0,0,0,0,0,0,0,0,0,0,1,469.052635,469.052635,473.660075,469.507404,NA,539.320017,469.052635,494.902388,544.397936,469.84382,469.058686,469.646934,525.553195,469.052635,469.079991,480.608359,488.00062,794.42565,469.053243,470.123464
1,0,1,1,0,0,0,0,0,1,0,0,0,0,0,0,0,0,0,0,0,0,0,0,0,1,469.062236,475.54401,473.660075,492.272385,NA,787.560927,483.933181,877.001315,543.841032,491.306702,556.656203,960.892895,525.553195,481.252886,644.407006,3038.497431,500.258624,794.42565,734.732015,499.416139
1,0,1,0,1,0,0,0,0,1,0,0,0,0,0,0,0,0,0,0,0,0,0,0,0,1,469.062385,475.55502,473.660075,491.844399,NA,784.38874,483.949021,877.442044,543.840094,480.595999,557.081184,960.749128,525.553195,481.307929,644.87771,3038.001368,499.491864,794.42565,735.901103,484.736524
1,1,0,0,0,0,0,0,0,1,0,0,0,0,0,0,0,0,0,0,0,0,0,0,0,2,469.052635,469.059064,473.660075,540.217844,NA,501.77886,469.052635,634.136194,544.397428,471.012838,469.206421,470.224275,525.553195,470.471319,469.142244,996.018014,471.291202,794.42565,484.338183,471.706953
1,0,1,0,0,0,0,0,0,1,0,0,0,0,0,0,0,0,0,0,0,0,0,0,0,2,498.391358,472.292897,473.660075,469.975516,NA,488.400345,496.368838,1004.257996,544.118859,496.916838,644.707236,861.618767,525.553195,510.746398,839.849931,618.371334,476.063148,794.42565,801.214802,507.152194
1,0,0,1,0,0,0,0,0,1,0,0,0,0,0,0,0,0,0,0,0,0,0,0,0,2,469.052635,469.052635,473.660075,469.057296,NA,470.609102,469.052635,470.636733,544.397982,469.052635,469.05302,469.052635,525.553195,469.052635,469.052635,469.096305,469.415363,794.42565,469.052635,469.052635
1,0,0,0,1,0,0,0,0,1,0,0,0,0,0,0,0,0,0,0,0,0,0,0,0,2,469.052635,469.052635,473.660075,472.497763,NA,504.568285,469.052635,509.826443,544.39795,469.819392,469.064034,469.05785,525.553195,469.054355,469.0633,497.470517,476.615377,794.42565,469.079161,470.090394
1,1,0,1,0,0,0,0,0,1,0,0,0,0,0,0,0,0,0,0,0,0,0,0,0,2,469.052635,469.059042,473.660075,540.158585,NA,501.904587,469.052635,634.087783,544.397429,470.97456,469.206014,470.224241,525.553195,470.468097,469.141929,995.816671,471.30911,794.42565,484.305907,471.655079
1,1,0,0,1,0,0,0,0,1,0,0,0,0,0,0,0,0,0,0,0,0,0,0,0,2,469.052635,469.058645,473.660075,539.187961,NA,504.143008,469.052635,633.137905,544.397464,470.332005,469.198684,470.224452,525.553195,470.419831,469.136275,990.749499,471.657557,794.42565,483.782537,470.784554
1,0,1,1,0,0,0,0,0,1,0,0,0,0,0,0,0,0,0,0,0,0,0,0,0,2,498.324619,472.316176,473.660075,469.971521,NA,488.384235,496.336574,1004.268107,544.116862,496.269598,644.810275,861.690213,525.553195,510.673658,839.834536,619.192485,476.044634,794.42565,801.221123,506.258055
1,0,1,0,1,0,0,0,0,1,0,0,0,0,0,0,0,0,0,0,0,0,0,0,0,2,498.307328,472.27389,473.660075,469.991578,NA,486.944744,496.351631,1002.724156,544.12049,481.541827,644.679651,861.467059,525.553195,510.757627,839.96723,610.9214,475.440229,794.42565,801.189171,486.027948
1,1,0,0,0,0,0,0,0,1,0,0,0,0,0,0,0,0,0,0,0,0,0,0,0,4,469.052635,469.061762,473.660075,579.056016,NA,469.078836,469.052635,618.163434,544.397194,471.901976,469.867261,470.501557,525.553195,492.032681,469.258743,485.439273,469.082251,794.42565,561.241845,472.912681
1,0,1,0,0,0,0,0,0,1,0,0,0,0,0,0,0,0,0,0,0,0,0,0,0,4,502.289895,469.086546,473.660075,472.912931,NA,479.044041,511.83627,925.588296,544.395051,498.460883,558.586684,853.487614,525.553195,546.79347,841.527299,506.523682,473.352441,794.42565,796.581451,509.286859
1,0,0,1,0,0,0,0,0,1,0,0,0,0,0,0,0,0,0,0,0,0,0,0,0,4,469.052635,469.052635,473.660075,469.56393,NA,472.685443,469.052635,479.482899,544.39798,469.052635,469.055189,469.052635,525.553195,469.052724,469.052635,470.621457,469.82303,794.42565,469.053145,469.052635
1,0,0,0,1,0,0,0,0,1,0,0,0,0,0,0,0,0,0,0,0,0,0,0,0,4,469.052635,469.052635,473.660075,556.319008,NA,490.79787,469.052635,606.333198,544.397878,469.966467,469.127052,469.05885,525.553195,473.90478,469.068401,677.116644,472.557587,794.42565,493.566807,470.289608
1,1,0,1,0,0,0,0,0,1,0,0,0,0,0,0,0,0,0,0,0,0,0,0,0,4,469.052635,469.06165,473.660075,579.080164,NA,469.077549,469.052635,617.975709,544.397204,471.806839,469.864367,470.501792,525.553195,492.135895,469.258305,485.083232,469.080898,794.42565,561.278022,472.783663
1,1,0,0,1,0,0,0,0,1,0,0,0,0,0,0,0,0,0,0,0,0,0,0,0,4,469.052635,469.060266,473.660075,579.093047,NA,469.052635,469.052635,617.847391,544.397324,470.539904,469.784361,470.50291,525.553195,492.11721,469.243998,485.099795,469.065848,794.42565,561.125013,471.066425
1,0,1,1,0,0,0,0,0,1,0,0,0,0,0,0,0,0,0,0,0,0,0,0,0,4,502.30269,469.086297,473.660075,472.915057,NA,478.960944,511.780404,925.666405,544.395072,497.693931,558.843736,853.480174,525.553195,546.670887,841.534418,506.224983,473.317129,794.42565,796.578107,508.226207
1,0,1,0,1,0,0,0,0,1,0,0,0,0,0,0,0,0,0,0,0,0,0,0,0,4,502.156098,469.074372,473.660075,473.1747,NA,477.130862,511.663036,920.618228,544.396104,481.675931,558.603024,853.333326,525.553195,546.540908,841.725385,499.003354,472.582841,794.42565,796.170747,486.211124
1,1,0,0,0,0,0,0,0,1,0,0,0,0,0,0,0,0,0,0,0,0,0,0,0,6,469.052635,469.060293,473.660075,585.16535,NA,469.052635,469.082461,587.653933,544.397321,472.104607,470.079527,470.504324,525.553195,507.531544,469.356602,469.402864,469.071651,794.42565,558.638686,473.187979
1,0,1,0,0,0,0,0,0,1,0,0,0,0,0,0,0,0,0,0,0,0,0,0,0,6,496.469706,469.076947,473.660075,475.229631,NA,477.104138,522.896298,851.663866,544.395881,498.897397,515.994202,854.187566,525.553195,572.29364,841.396472,495.581864,472.517527,794.42565,792.962884,509.890755
1,0,0,1,0,0,0,0,0,1,0,0,0,0,0,0,0,0,0,0,0,0,0,0,0,6,469.052635,469.052635,473.660075,472.41705,NA,473.210665,469.052635,490.196853,544.397979,469.052635,469.057425,469.052635,525.553195,469.059742,469.052635,474.213942,469.910164,794.42565,469.073211,469.052635
1,0,0,0,1,0,0,0,0,1,0,0,0,0,0,0,0,0,0,0,0,0,0,0,0,6,469.052635,469.052635,473.660075,580.170827,NA,470.740741,469.052635,607.209899,544.397859,469.969063,469.200107,469.058869,525.553195,491.789354,469.067125,497.772053,469.306052,794.42565,548.075206,470.293425
1,1,0,1,0,0,0,0,0,1,0,0,0,0,0,0,0,0,0,0,0,0,0,0,0,6,469.052635,469.060139,473.660075,585.154373,NA,469.052635,469.082364,587.698928,544.397335,471.978442,470.066334,470.504191,525.553195,507.504499,469.354904,469.402562,469.070657,794.42565,558.638357,473.016843
1,1,0,0,1,0,0,0,0,1,0,0,0,0,0,0,0,0,0,0,0,0,0,0,0,6,469.052635,469.058264,473.660075,585.139439,NA,469.052635,469.081339,587.734767,544.397497,470.51969,469.893839,470.504574,525.553195,507.397295,469.336641,469.386316,469.060585,794.42565,558.498186,471.039347
1,0,1,1,0,0,0,0,0,1,0,0,0,0,0,0,0,0,0,0,0,0,0,0,0,6,496.521878,469.076626,473.660075,475.247136,NA,477.014965,522.800424,851.803114,544.395909,498.076969,516.204274,854.175854,525.553195,572.086913,841.406124,495.290732,472.479222,794.42565,792.935654,508.755816
1,0,1,0,1,0,0,0,0,1,0,0,0,0,0,0,0,0,0,0,0,0,0,0,0,6,496.375649,469.066096,473.660075,476.000733,NA,475.259118,522.623616,843.24895,544.396819,481.681042,515.446918,854.023747,525.553195,571.916396,841.655603,488.894466,471.756288,794.42565,791.765328,486.218105
1,1,0,0,0,0,0,0,0,1,0,0,0,0,0,0,0,0,0,0,0,0,0,0,0,10,469.052635,469.0601,473.660075,598.854308,NA,469.052635,469.091263,544.574566,544.397338,472.085963,470.145838,470.454735,525.553195,527.550259,469.512334,469.072201,469.061434,794.42565,546.481741,473.163082
1,0,1,0,0,0,0,0,0,1,0,0,0,0,0,0,0,0,0,0,0,0,0,0,0,10,485.146561,469.069048,473.660075,479.419103,NA,475.222062,539.593862,742.958223,544.396564,499.407435,488.425094,854.781547,525.553195,609.872144,841.213579,485.112919,471.770175,794.42565,786.50005,510.596576
1,0,0,1,0,0,0,0,0,1,0,0,0,0,0,0,0,0,0,0,0,0,0,0,0,10,469.052635,469.052635,473.660075,486.787748,NA,473.088495,469.052635,506.536915,544.397979,469.052635,469.06002,469.052635,525.553195,469.468222,469.052635,479.977487,469.865215,794.42565,469.568081,469.052635
1,0,0,0,1,0,0,0,0,1,0,0,0,0,0,0,0,0,0,0,0,0,0,0,0,10,469.052635,469.052635,473.660075,592.521523,NA,469.052635,469.052635,558.272583,544.397877,469.959264,469.237622,469.058804,525.553195,516.820622,469.064888,469.146479,469.052635,794.42565,544.490869,470.280532
1,1,0,1,0,0,0,0,0,1,0,0,0,0,0,0,0,0,0,0,0,0,0,0,0,10,469.052635,469.059908,473.660075,599.112138,NA,469.052635,469.091287,543.947702,544.397355,471.947109,470.121937,470.453572,525.553195,527.842244,469.513202,469.071295,469.060909,794.42565,546.244918,472.97473
1,1,0,0,1,0,0,0,0,1,0,0,0,0,0,0,0,0,0,0,0,0,0,0,0,10,469.052635,469.057781,473.660075,599.156458,NA,469.052635,469.090065,543.82542,544.397539,470.464773,469.842317,470.453399,525.553195,527.798718,469.494585,469.065939,469.052635,794.42565,546.040305,470.965174
1,0,1,1,0,0,0,0,0,1,0,0,0,0,0,0,0,0,0,0,0,0,0,0,0,10,485.070412,469.068756,473.660075,479.556665,NA,475.098907,539.691382,741.456761,544.396589,498.510199,488.284112,854.774531,525.553195,610.109817,841.223869,484.726796,471.717306,794.42565,786.289584,509.354975
1,0,1,0,1,0,0,0,0,1,0,0,0,0,0,0,0,0,0,0,0,0,0,0,0,10,484.760033,469.061639,473.660075,481.712841,NA,473.296917,539.670393,725.784818,544.397205,481.684301,487.015523,854.614153,525.553195,610.438288,841.552521,479.385324,470.953667,794.42565,783.005032,486.222555
1,1,0,0,0,0,0,0,0,1,0,0,0,0,0,0,0,0,0,0,0,0,0,0,0,15,469.052635,469.060374,473.660075,616.425876,NA,469.052635,469.100018,512.144959,544.397314,472.023304,470.184375,470.395468,525.553195,544.185326,469.687477,469.052635,469.052635,794.42565,531.53937,473.07818
1,0,1,0,0,0,0,0,0,1,0,0,0,0,0,0,0,0,0,0,0,0,0,0,0,15,476.389547,469.061897,473.660075,485.304326,NA,474.061297,556.602752,654.979874,544.397182,499.732277,477.642274,853.963805,525.553195,646.625725,841.077757,478.71839,471.346757,794.42565,777.593833,511.046217
1,0,0,1,0,0,0,0,0,1,0,0,0,0,0,0,0,0,0,0,0,0,0,0,0,15,469.052635,469.052635,473.660075,511.395424,NA,472.569196,469.052635,516.366919,544.397978,469.052635,469.061692,469.052635,525.553195,472.433378,469.052635,481.061296,469.751703,794.42565,471.589998,469.052635
1,0,0,0,1,0,0,0,0,1,0,0,0,0,0,0,0,0,0,0,0,0,0,0,0,15,469.052635,469.052635,473.660075,609.872626,NA,469.052635,469.052635,519.750624,544.397893,469.95718,469.221365,469.058789,525.553195,535.348897,469.063094,469.052635,469.052635,794.42565,529.642107,470.277758
1,1,0,1,0,0,0,0,0,1,0,0,0,0,0,0,0,0,0,0,0,0,0,0,0,15,469.052635,469.060171,473.660075,616.555381,NA,469.052635,469.099944,511.961349,544.397332,471.88465,470.155362,470.39478,525.553195,544.280681,469.686853,469.052635,469.052635,794.42565,531.420337,472.890099
1,1,0,0,1,0,0,0,0,1,0,0,0,0,0,0,0,0,0,0,0,0,0,0,0,15,469.052635,469.058004,473.660075,616.405244,NA,469.052635,469.098513,512.157773,544.397519,470.430208,469.840054,470.395031,525.553195,544.049123,469.667182,469.052635,469.052635,794.42565,531.377972,470.918385
1,0,1,1,0,0,0,0,0,1,0,0,0,0,0,0,0,0,0,0,0,0,0,0,0,15,476.384114,469.061764,473.660075,485.533755,NA,473.940786,556.582761,653.766281,544.397194,498.7621,477.614068,853.956029,525.553195,646.614028,841.091124,478.434958,471.29305,794.42565,777.250634,509.703418
1,0,1,0,1,0,0,0,0,1,0,0,0,0,0,0,0,0,0,0,0,0,0,0,0,15,476.32804,469.057827,473.660075,489.744766,NA,472.208312,556.042895,635.692013,544.397535,481.685356,476.885511,853.793766,525.553195,645.91514,841.480274,474.461425,470.530713,794.42565,771.003802,486.223996
1,1,0,0,0,0,0,0,0,1,0,0,0,0,0,0,0,0,0,0,0,0,0,0,0,30,469.052635,469.060621,473.660075,645.374126,NA,469.052635,469.12091,477.445671,544.397293,471.921687,470.248718,470.248716,525.553195,572.683716,470.118287,469.052635,469.052635,794.42565,508.616074,472.940357
1,0,1,0,0,0,0,0,0,1,0,0,0,0,0,0,0,0,0,0,0,0,0,0,0,30,469.678817,469.052635,473.660075,502.870732,NA,472.707864,594.267076,554.818151,544.39784,499.97689,470.032402,848.647766,525.553195,720.798671,840.946197,472.223369,470.92072,794.42565,752.14893,511.384833
1,0,0,1,0,0,0,0,0,1,0,0,0,0,0,0,0,0,0,0,0,0,0,0,0,30,469.052635,469.052635,473.660075,550.057145,NA,470.516618,469.052635,506.662376,544.397977,469.052635,469.064455,469.052635,525.553195,500.410749,469.052635,472.644791,469.345912,794.42565,485.888817,469.052635
1,0,0,0,1,0,0,0,0,1,0,0,0,0,0,0,0,0,0,0,0,0,0,0,0,30,469.052635,469.052635,473.660075,637.842034,NA,469.052635,469.052635,478.830422,544.397919,469.956811,469.169929,469.058785,525.553195,565.403201,469.060038,469.052635,469.052635,794.42565,507.31279,470.27721
1,1,0,1,0,0,0,0,0,1,0,0,0,0,0,0,0,0,0,0,0,0,0,0,0,30,469.052635,469.060413,473.660075,645.360984,NA,469.052635,469.120739,477.456014,544.397311,471.784871,470.217576,470.248505,525.553195,572.653851,470.116254,469.052635,469.052635,794.42565,508.61433,472.754784
1,1,0,0,1,0,0,0,0,1,0,0,0,0,0,0,0,0,0,0,0,0,0,0,0,30,469.052635,469.058303,473.660075,645.385346,NA,469.052635,469.119378,477.376828,544.397493,470.379301,469.900499,470.246679,525.553195,572.605663,470.104207,469.052635,469.052635,794.42565,508.433705,470.849418
1,0,1,1,0,0,0,0,0,1,0,0,0,0,0,0,0,0,0,0,0,0,0,0,0,30,469.675636,469.052635,473.660075,503.631909,NA,472.59147,594.260558,553.054993,544.397842,498.929385,470.023948,848.62719,525.553195,720.80372,840.961472,472.059501,470.863404,794.42565,751.083202,509.934824
1,0,1,0,1,0,0,0,0,1,0,0,0,0,0,0,0,0,0,0,0,0,0,0,0,30,469.655407,469.052635,473.660075,516.394337,NA,471.105669,593.514139,529.949868,544.3979,481.685494,469.860606,848.35667,525.553195,719.308186,841.407141,470.215205,470.132998,794.42565,733.644566,486.224184
1,1,0,0,0,0,0,0,0,1,0,0,0,0,0,0,0,0,0,0,0,0,0,0,0,45,469.052635,469.059789,473.660075,652.021157,NA,469.052635,469.138344,470.72459,544.397365,471.870846,470.145808,470.131139,525.553195,591.404641,470.45342,469.052635,469.052635,794.42565,503.627253,472.871351
1,0,1,0,0,0,0,0,0,1,0,0,0,0,0,0,0,0,0,0,0,0,0,0,0,45,469.102685,469.052635,473.660075,520.136048,NA,472.384167,624.086447,531.26092,544.397956,500.043176,469.170943,842.864106,525.553195,771.348742,840.923559,470.583727,470.898448,794.42565,728.680946,511.47658
1,0,0,1,0,0,0,0,0,1,0,0,0,0,0,0,0,0,0,0,0,0,0,0,0,45,469.052635,469.052635,473.660075,556.037687,NA,469.497271,469.052635,485.985405,544.397977,469.052635,469.064698,469.052635,525.553195,525.82702,469.052635,469.550076,469.143966,794.42565,490.626929,469.052635
1,0,0,0,1,0,0,0,0,1,0,0,0,0,0,0,0,0,0,0,0,0,0,0,0,45,469.052635,469.052635,473.660075,643.976372,NA,469.052635,469.052635,470.967959,544.397935,469.956662,469.140539,469.058783,525.553195,584.617941,469.058231,469.052635,469.052635,794.42565,502.665705,470.276973
1,1,0,1,0,0,0,0,0,1,0,0,0,0,0,0,0,0,0,0,0,0,0,0,0,45,469.052635,469.059602,473.660075,652.007169,NA,469.052635,469.138129,470.733416,544.397381,471.736188,470.117359,470.131134,525.553195,591.331432,470.451042,469.052635,469.052635,794.42565,503.626039,472.688712
1,1,0,0,1,0,0,0,0,1,0,0,0,0,0,0,0,0,0,0,0,0,0,0,0,45,469.052635,469.057697,473.660075,651.907206,NA,469.052635,469.136592,470.748898,544.397546,470.356773,469.827549,470.12983,525.553195,591.016985,470.440069,469.052635,469.052635,794.42565,503.539572,470.818875
1,0,1,1,0,0,0,0,0,1,0,0,0,0,0,0,0,0,0,0,0,0,0,0,0,45,469.100448,469.052635,473.660075,521.673049,NA,472.279767,624.463132,529.329073,544.397957,498.963629,469.16629,842.749752,525.553195,771.894208,840.939059,470.482121,470.842492,794.42565,726.660991,509.982185
1,0,1,0,1,0,0,0,0,1,0,0,0,0,0,0,0,0,0,0,0,0,0,0,0,45,469.101108,469.052635,473.660075,541.603745,NA,470.983138,622.646205,507.084585,544.397965,481.685417,469.144755,842.507121,525.553195,767.559252,841.3943,469.566127,470.127901,794.42565,701.423916,486.224078
1,1,0,0,0,0,0,0,0,1,0,0,0,0,0,0,0,0,0,0,0,0,0,0,0,60,469.052635,469.058692,473.660075,653.263639,NA,469.052635,469.15332,469.416789,544.39746,471.844681,469.984687,470.036637,525.553195,606.78119,470.71817,469.052635,469.052635,794.42565,502.705429,472.835784
1,0,1,0,0,0,0,0,0,1,0,0,0,0,0,0,0,0,0,0,0,0,0,0,0,60,469.056636,469.052635,473.660075,536.391271,NA,472.590763,649.92057,528.150114,544.397977,500.085705,469.07137,837.240731,525.553195,809.119192,840.919189,470.573079,471.031739,794.42565,707.857686,511.535433
1,0,0,1,0,0,0,0,0,1,0,0,0,0,0,0,0,0,0,0,0,0,0,0,0,60,469.052635,469.052635,473.660075,556.730099,NA,469.188054,469.052635,475.388553,544.397977,469.052635,469.063536,469.052635,525.553195,544.822416,469.052635,469.110464,469.080856,794.42565,491.257611,469.052635
1,0,0,0,1,0,0,0,0,1,0,0,0,0,0,0,0,0,0,0,0,0,0,0,0,60,469.052635,469.052635,473.660075,645.094378,NA,469.052635,469.052635,469.42706,544.397947,469.956526,469.119753,469.058781,525.553195,600.5322,469.05692,469.052635,469.052635,794.42565,501.827926,470.276766
1,1,0,1,0,0,0,0,0,1,0,0,0,0,0,0,0,0,0,0,0,0,0,0,0,60,469.052635,469.058547,473.660075,653.248564,NA,469.052635,469.152893,469.426909,544.397472,471.711572,469.962505,470.037865,525.553195,606.485849,470.712658,469.052635,469.052635,794.42565,502.705001,472.655255
1,1,0,0,1,0,0,0,0,1,0,0,0,0,0,0,0,0,0,0,0,0,0,0,0,60,469.052635,469.056904,473.660075,653.154031,NA,469.052635,469.151495,469.427315,544.397614,470.345335,469.710298,470.035384,525.553195,606.197609,470.708023,469.052635,469.052635,794.42565,502.614529,470.803343
1,0,1,1,0,0,0,0,0,1,0,0,0,0,0,0,0,0,0,0,0,0,0,0,0,60,469.056604,469.052635,473.660075,537.995334,NA,472.489186,649.824155,526.388306,544.397977,498.979848,469.07125,837.211497,525.553195,808.870873,840.934875,470.492741,470.97514,794.42565,705.865603,510.004611
1,0,1,0,1,0,0,0,0,1,0,0,0,0,0,0,0,0,0,0,0,0,0,0,0,60,469.056526,469.052635,473.660075,562.575526,NA,471.193516,647.802352,504.296228,544.397979,481.68533,469.067028,836.833648,525.553195,803.128365,841.391597,469.685319,470.242968,794.42565,676.649947,486.22396
1,1,0,0,0,0,0,0,0,1,0,0,0,0,0,0,0,0,0,0,0,0,0,0,0,120,469.052635,469.05549,473.660075,653.543869,NA,469.052635,469.198702,469.06941,544.397737,471.813305,469.493234,469.787498,525.553195,655.459438,471.408772,469.052635,469.052635,794.42565,502.497988,472.792966
1,0,1,0,0,0,0,0,0,1,0,0,0,0,0,0,0,0,0,0,0,0,0,0,0,120,469.052635,469.052635,473.660075,570.591702,NA,472.525654,735.43639,528.891663,544.397984,500.143423,469.052635,816.241316,525.553195,902.210527,840.917803,470.9802,470.886856,794.42565,667.62688,511.615271
1,0,0,1,0,0,0,0,0,1,0,0,0,0,0,0,0,0,0,0,0,0,0,0,0,120,469.052635,469.052635,473.660075,556.820836,NA,469.052635,469.052635,469.175043,544.397981,469.052635,469.058048,469.052635,525.553195,597.225653,469.052635,469.052635,469.052635,794.42565,491.341876,469.052635
1,0,0,0,1,0,0,0,0,1,0,0,0,0,0,0,0,0,0,0,0,0,0,0,0,120,469.052635,469.052635,473.660075,645.329823,NA,469.052635,469.052635,469.05325,544.39797,469.956076,469.076466,469.058773,525.553195,649.826282,469.052635,469.052635,469.052635,794.42565,501.651851,470.276113
1,1,0,1,0,0,0,0,0,1,0,0,0,0,0,0,0,0,0,0,0,0,0,0,0,120,469.052635,469.055418,473.660075,653.537833,NA,469.052635,469.198578,469.06938,544.397743,471.681487,469.482048,469.786894,525.553195,655.439979,471.409358,469.052635,469.052635,794.42565,502.490867,472.614204
1,1,0,0,1,0,0,0,0,1,0,0,0,0,0,0,0,0,0,0,0,0,0,0,0,120,469.052635,469.052635,473.660075,653.442053,NA,469.052635,469.19773,469.069156,544.397804,470.331469,469.371316,469.781527,525.553195,655.189635,471.422755,469.052635,469.052635,794.42565,502.401326,470.784438
1,0,1,1,0,0,0,0,0,1,0,0,0,0,0,0,0,0,0,0,0,0,0,0,0,120,469.052635,469.052635,473.660075,572.824272,NA,472.481528,734.927892,527.940162,544.397984,498.993972,469.052635,816.20713,525.553195,901.486919,840.9335,470.954037,470.862434,794.42565,665.154661,510.024131
1,0,1,0,1,0,0,0,0,1,0,0,0,0,0,0,0,0,0,0,0,0,0,0,0,120,469.052635,469.052635,473.660075,602.296301,NA,471.600681,729.641351,511.131361,544.397984,481.684964,469.052635,815.558006,525.553195,890.461827,841.390633,470.31517,470.391716,794.42565,634.106409,486.223459
