TR:inSilico:CellLine,TR:loLIG1:Stimuli,TR:hiLIG1:Stimuli,TR:loLIG2:Stimuli,TR:hiLIG2:Stimuli,TR:AB1i,TR:AB2i,TR:AB3i,TR:AB4i,TR:AB5i,TR:AB6i,TR:AB7i,TR:AB8i,TR:AB9i,TR:AB10i,TR:AB11i,TR:AB12i,TR:AB13i,TR:AB14i,TR:AB15i,TR:AB16i,TR:AB17i,TR:AB18i,TR:AB19i,TR:AB20i,DA:ALL,DV:AB1,DV:AB2,DV:AB3,DV:AB4,DV:AB5,DV:AB6,DV:AB7,DV:AB8,DV:AB9,DV:AB10,DV:AB11,DV:AB12,DV:AB13,DV:AB14,DV:AB15,DV:AB16,DV:AB17,DV:AB18,DV:AB19,DV:AB20
1,1,0,0,0,0,1,0,0,0,0,0,0,0,0,0,0,0,0,0,0,0,0,0,0,0,469.052635,NA,473.660075,469.052635,469.052635,469.052635,469.052635,469.05308,544.397984,469.052635,469.052635,469.052635,525.553195,469.052635,469.052635,469.052635,469.052635,794.42565,469.052635,469.052635
1,0,1,0,0,0,1,0,0,0,0,0,0,0,0,0,0,0,0,0,0,0,0,0,0,0,469.052635,NA,473.660075,469.053871,469.067975,469.071454,469.052635,469.27471,544.397984,469.052635,469.052635,469.052635,525.553195,469.052635,469.052635,469.052635,469.052635,794.42565,469.052635,469.269441
1,0,0,1,0,0,1,0,0,0,0,0,0,0,0,0,0,0,0,0,0,0,0,0,0,0,469.052635,NA,473.660075,469.052635,469.052635,469.052635,469.052635,469.052635,544.397984,469.052635,469.052635,469.052635,525.553195,469.052635,469.052635,469.052635,469.052635,794.42565,469.052635,469.052635
1,0,0,0,1,0,1,0,0,0,0,0,0,0,0,0,0,0,0,0,0,0,0,0,0,0,469.052635,NA,473.660075,469.052635,469.052635,469.052635,469.052635,469.052635,544.397984,469.052635,469.052635,469.052635,525.553195,469.052635,469.052635,469.052635,469.052635,794.42565,469.052635,469.052635
1,1,0,1,0,0,1,0,0,0,0,0,0,0,0,0,0,0,0,0,0,0,0,0,0,0,469.052635,NA,473.660075,469.052635,469.052635,469.052635,469.052635,469.05308,544.397984,469.052635,469.052635,469.052635,525.553195,469.052635,469.052635,469.052635,469.052635,794.42565,469.052635,469.052635
1,1,0,0,1,0,1,0,0,0,0,0,0,0,0,0,0,0,0,0,0,0,0,0,0,0,469.052635,NA,473.660075,469.052635,469.052635,469.052635,469.052635,469.05308,544.397984,469.052635,469.052635,469.052635,525.553195,469.052635,469.052635,469.052635,469.052635,794.42565,469.052635,469.052635
1,0,1,1,0,0,1,0,0,0,0,0,0,0,0,0,0,0,0,0,0,0,0,0,0,0,469.052635,NA,473.660075,469.053871,469.067975,469.071454,469.052635,469.27471,544.397984,469.052635,469.052635,469.052635,525.553195,469.052635,469.052635,469.052635,469.052635,794.42565,469.052635,469.269441
1,0,1,0,1,0,1,0,0,0,0,0,0,0,0,0,0,0,0,0,0,0,0,0,0,0,469.052635,NA,473.660075,469.053871,469.067975,469.071454,469.052635,469.27471,544.397984,469.052635,469.052635,469.052635,525.553195,469.052635,469.052635,469.052635,469.052635,794.42565,469.052635,469.269441
1,1,0,0,0,0,1,0,0,0,0,0,0,0,0,0,0,0,0,0,0,0,0,0,0,1,469.052635,NA,473.660075,472.72651,476.064166,669.388882,469.052635,540.689621,544.393095,469.991787,469.052635,470.162653,525.553195,469.053402,469.173327,563.309942,515.791421,794.42565,469.091759,470.323352
1,0,1,0,0,0,1,0,0,0,0,0,0,0,0,0,0,0,0,0,0,0,0,0,0,1,469.052635,NA,473.660075,485.779188,658.579544,857.684937,485.241067,890.611764,542.169289,491.776079,469.052635,980.577669,525.553195,481.87163,666.37143,3056.553399,534.965566,794.42565,750.218996,500.232116
1,0,0,1,0,0,1,0,0,0,0,0,0,0,0,0,0,0,0,0,0,0,0,0,0,1,469.052635,NA,473.660075,469.072811,469.13085,484.86441,469.052635,474.667693,544.37994,471.256908,469.052635,469.052635,525.553195,469.052635,469.060167,469.601045,473.70205,794.42565,469.052635,470.085238
1,0,0,0,1,0,1,0,0,0,0,0,0,0,0,0,0,0,0,0,0,0,0,0,0,1,469.052635,NA,473.660075,482.508888,471.070255,708.818545,469.052635,592.67806,543.435793,527.397657,469.052635,469.055714,525.553195,469.065033,469.285908,800.927974,500.000095,794.42565,469.55708,496.790145
1,1,0,1,0,0,1,0,0,0,0,0,0,0,0,0,0,0,0,0,0,0,0,0,0,1,469.052635,NA,473.660075,473.252214,476.17503,679.774536,469.052635,545.206138,544.369328,472.172045,469.052635,470.167429,525.553195,469.053649,469.182039,576.702841,516.952649,794.42565,469.103619,471.336181
1,1,0,0,1,0,1,0,0,0,0,0,0,0,0,0,0,0,0,0,0,0,0,0,0,1,469.052635,NA,473.660075,489.224898,478.092085,663.195647,469.089089,611.045638,543.338538,522.904859,469.052635,470.166664,525.553195,469.083777,469.40066,939.721458,484.121132,794.42565,470.166183,497.2235
1,0,1,1,0,0,1,0,0,0,0,0,0,0,0,0,0,0,0,0,0,0,0,0,0,1,469.052635,NA,473.660075,486.043054,658.593209,859.014468,485.224904,890.215726,542.140826,492.971799,469.052635,980.675671,525.553195,481.83424,665.929245,3056.639918,535.174293,794.42565,749.483899,500.541038
1,0,1,0,1,0,1,0,0,0,0,0,0,0,0,0,0,0,0,0,0,0,0,0,0,1,469.052635,NA,473.660075,486.178887,660.609274,860.636006,485.225047,890.056246,540.981979,521.212763,469.052635,980.715217,525.553195,481.813089,665.730684,3056.830286,535.695961,794.42565,749.088652,507.471383
1,1,0,0,0,0,1,0,0,0,0,0,0,0,0,0,0,0,0,0,0,0,0,0,0,2,469.052635,NA,473.660075,569.86872,485.171516,472.953641,469.109892,642.939178,544.203571,470.999429,469.052635,471.31004,525.553195,474.311985,469.905243,828.178022,470.611934,794.42565,513.245197,471.68889
1,0,1,0,0,0,1,0,0,0,0,0,0,0,0,0,0,0,0,0,0,0,0,0,0,2,469.052635,NA,473.660075,469.290492,697.976586,673.900345,500.06171,1130.165507,532.974417,497.0219,469.052635,894.492061,525.553195,511.951062,840.210687,1968.138946,536.85023,794.42565,802.306379,507.412148
1,0,0,1,0,0,1,0,0,0,0,0,0,0,0,0,0,0,0,0,0,0,0,0,0,2,469.052635,NA,473.660075,485.204976,469.306249,567.439067,469.052635,564.032957,544.057574,476.203557,469.052635,469.052635,525.553195,469.088898,469.099635,639.879904,488.052495,794.42565,469.678682,472.372561
1,0,0,0,1,0,1,0,0,0,0,0,0,0,0,0,0,0,0,0,0,0,0,0,0,2,469.052635,NA,473.660075,574.978756,473.123841,472.767474,469.117362,643.940329,531.981676,537.686633,469.052635,469.057889,525.553195,476.625738,470.053046,738.59887,470.548376,794.42565,527.881845,535.071108
1,1,0,1,0,0,1,0,0,0,0,0,0,0,0,0,0,0,0,0,0,0,0,0,0,2,469.052635,NA,473.660075,570.612352,485.421727,473.012521,469.113338,643.1114,543.662082,474.983359,469.052635,471.312082,525.553195,474.545235,469.95514,818.289564,470.706654,794.42565,514.803773,474.897244
1,1,0,0,1,0,1,0,0,0,0,0,0,0,0,0,0,0,0,0,0,0,0,0,0,2,469.052635,NA,473.660075,575.780866,489.333605,475.560456,469.173258,646.516176,531.768297,538.729363,469.052635,471.307099,525.553195,477.504275,470.913452,725.037802,472.055553,794.42565,534.109323,535.535556
1,0,1,1,0,0,1,0,0,0,0,0,0,0,0,0,0,0,0,0,0,0,0,0,0,2,469.052635,NA,473.660075,469.290378,698.074628,673.689253,500.000286,1129.507112,532.783034,501.791271,469.052635,894.591631,525.553195,511.831048,840.181378,1967.862638,536.836415,794.42565,802.306558,508.687148
1,0,1,0,1,0,1,0,0,0,0,0,0,0,0,0,0,0,0,0,0,0,0,0,0,2,469.052635,NA,473.660075,469.285956,702.498868,678.146761,500.128454,1131.79424,526.460203,585.031238,469.052635,894.557716,525.553195,511.981084,840.08664,1997.774473,538.326114,794.42565,802.313599,529.216037
1,1,0,0,0,0,1,0,0,0,0,0,0,0,0,0,0,0,0,0,0,0,0,0,0,4,469.052635,NA,473.660075,574.656612,496.197531,472.870929,469.222716,626.174594,541.324822,471.862247,469.052635,472.06489,525.553195,496.79847,473.159281,492.386437,470.858111,794.42565,579.752228,472.858665
1,0,1,0,0,0,1,0,0,0,0,0,0,0,0,0,0,0,0,0,0,0,0,0,0,4,469.052635,NA,473.660075,469.152568,727.086058,776.54664,521.680938,1408.397704,516.903391,498.809681,469.052635,888.285884,525.553195,548.759272,841.546587,2929.712477,555.254497,794.42565,802.525958,509.526518
1,0,0,1,0,0,1,0,0,0,0,0,0,0,0,0,0,0,0,0,0,0,0,0,0,4,469.052635,NA,473.660075,577.966432,469.605791,469.35695,469.052635,626.993276,539.621132,475.995954,469.052635,469.052635,525.553195,485.7221,469.235376,527.967364,469.1742,794.42565,554.163617,477.675579
1,0,0,0,1,0,1,0,0,0,0,0,0,0,0,0,0,0,0,0,0,0,0,0,0,4,469.052635,NA,473.660075,574.835269,476.67771,471.76088,469.187817,622.98731,491.65512,570.861409,469.052635,469.058924,525.553195,498.933759,471.916175,485.222529,470.184638,794.42565,581.31336,602.90012
1,1,0,1,0,0,1,0,0,0,0,0,0,0,0,0,0,0,0,0,0,0,0,0,0,4,469.052635,NA,473.660075,574.246975,496.785513,473.120586,469.232163,626.820972,536.442114,479.471966,469.052635,472.06507,525.553195,497.085343,473.360006,493.073629,470.962291,794.42565,581.089307,481.041441
1,1,0,0,1,0,1,0,0,0,0,0,0,0,0,0,0,0,0,0,0,0,0,0,0,4,469.052635,NA,473.660075,567.819716,504.049448,475.510108,469.352738,636.073411,490.467264,579.247847,469.052635,472.057678,525.553195,500.427515,476.093681,500.160236,471.93521,794.42565,599.662389,601.395806
1,0,1,1,0,0,1,0,0,0,0,0,0,0,0,0,0,0,0,0,0,0,0,0,0,4,469.052635,NA,473.660075,469.152095,727.64116,777.563111,521.684019,1408.650539,516.387225,513.12696,469.052635,888.288941,525.553195,548.736159,841.543975,2932.477273,555.537438,794.42565,802.526711,513.143406
1,0,1,0,1,0,1,0,0,0,0,0,0,0,0,0,0,0,0,0,0,0,0,0,0,4,469.052635,NA,473.660075,469.144753,735.387518,792.343878,522.024548,1416.215566,503.866518,725.024309,469.052635,888.391904,525.553195,548.878997,841.488462,2972.51366,559.310195,794.42565,802.538402,559.769152
1,1,0,0,0,0,1,0,0,0,0,0,0,0,0,0,0,0,0,0,0,0,0,0,0,6,469.052635,NA,473.660075,575.424921,501.627896,471.331502,469.303431,603.229063,534.260346,472.043114,469.052635,472.153976,525.553195,513.367657,476.147677,478.158703,470.15278,794.42565,588.85357,473.104234
1,0,1,0,0,0,1,0,0,0,0,0,0,0,0,0,0,0,0,0,0,0,0,0,0,6,469.052635,NA,473.660075,469.110489,739.995151,822.913325,540.281985,1605.900477,502.201702,499.309559,469.052635,889.04889,525.553195,575.057958,841.420416,3084.5443,560.664781,794.42565,802.592963,510.111121
1,0,0,1,0,0,1,0,0,0,0,0,0,0,0,0,0,0,0,0,0,0,0,0,0,6,469.052635,NA,473.660075,582.51491,469.923083,469.301395,469.052635,596.611341,530.405303,479.0609,469.052635,469.052635,525.553195,503.276316,469.394591,471.13188,469.159871,794.42565,561.286374,482.659624
1,0,0,0,1,0,1,0,0,0,0,0,0,0,0,0,0,0,0,0,0,0,0,0,0,6,469.052635,NA,473.660075,577.145202,480.273959,471.03542,469.241355,598.692381,473.07317,721.383037,469.052635,469.058949,525.553195,514.617071,473.67934,476.297227,469.903043,794.42565,586.01725,657.918202
1,1,0,1,0,0,1,0,0,0,0,0,0,0,0,0,0,0,0,0,0,0,0,0,0,6,469.052635,NA,473.660075,574.507191,502.467982,471.56617,469.317812,604.721391,521.718777,483.921517,469.052635,472.153257,525.553195,513.561405,476.476738,478.971528,470.254943,794.42565,591.082506,485.953213
1,1,0,0,1,0,1,0,0,0,0,0,0,0,0,0,0,0,0,0,0,0,0,0,0,6,469.052635,NA,473.660075,563.078825,512.65209,473.233831,469.48594,617.762188,471.244598,788.955775,469.052635,472.144261,525.553195,518.174918,480.958985,484.138135,470.952973,794.42565,618.386075,652.663268
1,0,1,1,0,0,1,0,0,0,0,0,0,0,0,0,0,0,0,0,0,0,0,0,0,6,469.052635,NA,473.660075,469.109975,740.821162,824.689047,540.278068,1605.954902,501.583426,522.339541,469.052635,889.048467,525.553195,574.986717,841.419808,3085.330808,561.135151,794.42565,802.593782,515.841153
1,0,1,0,1,0,1,0,0,0,0,0,0,0,0,0,0,0,0,0,0,0,0,0,0,6,469.052635,NA,473.660075,469.103454,750.283798,846.869579,540.707745,1610.475443,487.556551,820.525039,469.052635,889.129586,525.553195,574.764686,841.41695,3093.113802,566.675569,794.42565,802.604166,584.086029
1,1,0,0,0,0,1,0,0,0,0,0,0,0,0,0,0,0,0,0,0,0,0,0,0,10,469.052635,NA,473.660075,583.966818,505.871339,469.765767,469.386294,561.344265,513.62618,471.980605,469.052635,471.983603,525.553195,537.418308,479.46205,470.992514,469.417808,794.42565,586.492553,473.018991
1,0,1,0,0,0,1,0,0,0,0,0,0,0,0,0,0,0,0,0,0,0,0,0,0,10,469.052635,NA,473.660075,469.08499,754.908566,859.78667,575.308644,1770.558978,478.200016,499.861715,469.052635,890.107573,525.553195,614.910854,841.234843,3099.868321,565.191364,794.42565,802.633571,510.794668
1,0,0,1,0,0,1,0,0,0,0,0,0,0,0,0,0,0,0,0,0,0,0,0,0,10,469.052635,NA,473.660075,595.537303,470.536117,469.250825,469.080114,551.465126,506.969953,488.180665,469.052635,469.052635,525.553195,525.142737,469.712348,469.591615,469.142705,794.42565,550.722582,491.621929
1,0,0,0,1,0,1,0,0,0,0,0,0,0,0,0,0,0,0,0,0,0,0,0,0,10,469.052635,NA,473.660075,585.377476,485.787679,470.258498,469.320712,559.695187,469.080285,1100.33613,469.052635,469.058861,525.553195,537.988423,476.346028,472.071822,469.591749,794.42565,584.250401,737.363224
1,1,0,1,0,0,1,0,0,0,0,0,0,0,0,0,0,0,0,0,0,0,0,0,0,10,469.052635,NA,473.660075,582.356483,507.091797,469.93832,469.412551,562.908258,487.527776,499.263391,469.052635,471.98009,525.553195,538.255887,480.165922,471.4014,469.497093,794.42565,590.110733,493.809197
1,1,0,0,1,0,1,0,0,0,0,0,0,0,0,0,0,0,0,0,0,0,0,0,0,10,469.052635,NA,473.660075,564.906728,514.770464,470.897216,469.644144,578.116669,469.053095,1096.679156,469.052635,471.969894,525.553195,545.382695,486.940534,473.604902,469.930284,794.42565,626.376154,715.044609
1,0,1,1,0,0,1,0,0,0,0,0,0,0,0,0,0,0,0,0,0,0,0,0,0,10,469.052635,NA,473.660075,469.084478,756.113888,862.45669,575.283136,1768.743016,477.756304,538.697678,469.052635,890.105393,525.553195,614.711977,841.236836,3099.891351,565.979658,794.42565,802.634386,520.209941
1,0,1,0,1,0,1,0,0,0,0,0,0,0,0,0,0,0,0,0,0,0,0,0,0,10,469.052635,NA,473.660075,469.079089,763.360218,888.088953,577.96521,1750.650586,470.077984,954.632862,469.052635,890.201821,525.553195,615.563888,841.293459,3099.992318,573.869301,794.42565,802.642971,627.156917
1,1,0,0,0,0,1,0,0,0,0,0,0,0,0,0,0,0,0,0,0,0,0,0,0,15,469.052635,NA,473.660075,599.943266,507.069459,469.28537,469.435759,523.969275,485.234256,471.889789,469.052635,471.73609,525.553195,559.22595,481.47866,469.435911,469.175368,794.42565,572.958921,472.893778
1,0,1,0,0,0,1,0,0,0,0,0,0,0,0,0,0,0,0,0,0,0,0,0,0,15,469.052635,NA,473.660075,469.076693,754.462323,865.512811,619.741188,1801.704002,469.148317,500.212248,469.052635,889.927808,525.553195,653.400058,841.095022,3099.998232,567.131454,794.42565,802.646785,511.211811
1,0,0,1,0,0,1,0,0,0,0,0,0,0,0,0,0,0,0,0,0,0,0,0,0,15,469.052635,NA,473.660075,612.849881,471.355205,469.217188,469.09336,516.773061,483.631301,511.164168,469.052635,469.052635,525.553195,543.426592,470.127803,469.324907,469.130555,794.42565,536.448595,501.811447
1,0,0,0,1,0,1,0,0,0,0,0,0,0,0,0,0,0,0,0,0,0,0,0,0,15,469.052635,NA,473.660075,599.097373,488.376638,469.787936,469.387915,526.970728,469.052635,1192.712422,469.052635,469.058835,525.553195,559.3728,479.068994,470.253945,469.394037,794.42565,574.411422,790.352843
1,1,0,1,0,0,1,0,0,0,0,0,0,0,0,0,0,0,0,0,0,0,0,0,0,15,469.052635,NA,473.660075,597.391935,505.614865,469.434527,469.473263,526.335673,469.267283,562.714982,469.052635,471.735889,525.553195,560.217069,482.556289,469.673977,469.24817,794.42565,577.762471,501.218353
1,1,0,0,1,0,1,0,0,0,0,0,0,0,0,0,0,0,0,0,0,0,0,0,0,15,469.052635,NA,473.660075,576.091975,509.878292,469.967895,469.755511,539.509148,469.052635,1185.830963,469.052635,471.725396,525.553195,570.817347,491.688431,470.526153,469.50802,794.42565,618.249511,744.080015
1,0,1,1,0,0,1,0,0,0,0,0,0,0,0,0,0,0,0,0,0,0,0,0,0,15,469.052635,NA,473.660075,469.076135,756.03731,868.251981,620.377685,1796.292914,469.134992,557.361938,469.052635,889.925152,525.553195,653.5338,841.098162,3099.998881,568.21339,794.42565,802.647674,524.736819
1,0,1,0,1,0,1,0,0,0,0,0,0,0,0,0,0,0,0,0,0,0,0,0,0,15,469.052635,NA,473.660075,469.072485,765.313518,886.234434,625.161778,1743.276136,469.058959,1051.893667,469.052635,890.01069,525.553195,653.92013,841.224842,3099.999982,576.795579,794.42565,802.653487,672.389635
1,1,0,0,0,0,1,0,0,0,0,0,0,0,0,0,0,0,0,0,0,0,0,0,0,30,469.052635,NA,473.660075,636.258454,492.859486,469.080778,469.502249,480.496953,469.052635,471.798756,469.052635,471.207165,525.553195,599.015734,484.024261,469.052635,469.06799,794.42565,541.903535,472.765193
1,0,1,0,0,0,1,0,0,0,0,0,0,0,0,0,0,0,0,0,0,0,0,0,0,30,469.052635,NA,473.660075,469.071447,784.643026,853.417955,774.36011,1815.02579,469.052635,500.539333,469.052635,885.59686,525.553195,735.613655,840.990719,3099.999586,564.859594,794.42565,802.655141,511.551839
1,0,0,1,0,0,1,0,0,0,0,0,0,0,0,0,0,0,0,0,0,0,0,0,0,30,469.052635,NA,473.660075,642.292444,473.954336,469.171752,469.12685,480.081305,469.19502,659.166323,469.052635,469.052635,525.553195,574.38107,471.279569,469.100907,469.11177,794.42565,513.392257,526.749443
1,0,0,0,1,0,1,0,0,0,0,0,0,0,0,0,0,0,0,0,0,0,0,0,0,30,469.052635,NA,473.660075,632.715717,488.707637,469.288515,469.490358,485.195178,469.052635,1243.764871,469.052635,469.058797,525.553195,600.075826,484.009632,469.16621,469.168197,794.42565,546.95064,795.882309
1,1,0,1,0,0,1,0,0,0,0,0,0,0,0,0,0,0,0,0,0,0,0,0,0,30,469.052635,NA,473.660075,633.519735,491.821679,469.182984,469.571019,482.396586,469.052635,660.112049,469.052635,471.205406,525.553195,601.612429,486.276233,469.104055,469.121501,794.42565,546.941472,517.92935
1,1,0,0,1,0,1,0,0,0,0,0,0,0,0,0,0,0,0,0,0,0,0,0,0,30,469.052635,NA,473.660075,612.145287,495.24478,469.292954,469.916537,487.756367,469.052635,1234.844447,469.052635,471.205529,525.553195,620.903337,499.282583,469.16273,469.183136,794.42565,585.11962,708.322426
1,0,1,1,0,0,1,0,0,0,0,0,0,0,0,0,0,0,0,0,0,0,0,0,0,30,469.052635,NA,473.660075,469.07086,787.613471,856.80734,774.242236,1803.279531,469.052635,602.936754,469.052635,885.677064,525.553195,734.66331,840.99603,3099.999819,566.498804,794.42565,802.656076,534.853102
1,0,1,0,1,0,1,0,0,0,0,0,0,0,0,0,0,0,0,0,0,0,0,0,0,30,469.052635,NA,473.660075,469.068163,813.948284,868.75975,795.521664,1732.179879,469.052635,1150.660703,469.052635,885.734467,525.553195,735.761909,841.167191,3099.999998,574.836046,794.42565,802.660371,775.452195
1,1,0,0,0,0,1,0,0,0,0,0,0,0,0,0,0,0,0,0,0,0,0,0,0,45,469.052635,NA,473.660075,651.927976,483.332427,469.052635,469.539388,471.463774,469.052635,471.77386,469.052635,470.863175,525.553195,624.183829,485.217645,469.052635,469.052635,794.42565,529.360827,472.730573
1,0,1,0,0,0,1,0,0,0,0,0,0,0,0,0,0,0,0,0,0,0,0,0,0,45,469.052635,NA,473.660075,469.075165,856.016676,804.902001,981.530878,1898.143499,469.052635,500.673329,469.052635,880.236724,525.553195,793.851147,840.976603,3099.735605,549.802357,794.42565,802.64922,511.671275
1,0,0,1,0,0,1,0,0,0,0,0,0,0,0,0,0,0,0,0,0,0,0,0,0,45,469.052635,NA,473.660075,650.089439,475.584369,469.148088,469.155216,472.58627,469.052635,750.987427,469.052635,469.052635,525.553195,594.633739,472.358951,469.065019,469.100519,794.42565,507.585104,546.34224
1,0,0,0,1,0,1,0,0,0,0,0,0,0,0,0,0,0,0,0,0,0,0,0,0,45,469.052635,NA,473.660075,649.112513,485.703143,469.140361,469.530385,473.913749,469.052635,1246.310972,469.052635,469.05876,525.553195,626.783291,486.264068,469.065593,469.096327,794.42565,533.825787,728.751032
1,1,0,1,0,0,1,0,0,0,0,0,0,0,0,0,0,0,0,0,0,0,0,0,0,45,469.052635,NA,473.660075,649.947806,485.32398,469.140513,469.633301,473.033748,469.052635,747.916308,469.052635,470.865946,525.553195,627.665049,488.551236,469.052635,469.099525,794.42565,533.716128,529.966282
1,1,0,0,1,0,1,0,0,0,0,0,0,0,0,0,0,0,0,0,0,0,0,0,0,45,469.052635,NA,473.660075,634.896716,486.573589,469.140279,469.986818,474.474098,469.052635,1236.608224,469.052635,470.879201,525.553195,652.997781,502.723573,469.052635,469.102373,794.42565,565.09537,642.472087
1,0,1,1,0,0,1,0,0,0,0,0,0,0,0,0,0,0,0,0,0,0,0,0,0,45,469.052635,NA,473.660075,469.074109,861.380388,809.286985,987.454838,1893.694318,469.052635,638.103576,469.052635,880.266445,525.553195,793.724547,840.981609,3099.850195,551.164139,794.42565,802.650902,542.372054
1,0,1,0,1,0,1,0,0,0,0,0,0,0,0,0,0,0,0,0,0,0,0,0,0,45,469.052635,NA,473.660075,469.07138,896.195826,817.485409,1036.242125,1879.838099,469.052635,1159.88804,469.052635,880.342764,525.553195,794.634522,841.159053,3099.970966,554.479277,794.42565,802.655248,841.065837
1,1,0,0,0,0,1,0,0,0,0,0,0,0,0,0,0,0,0,0,0,0,0,0,0,60,469.052635,NA,473.660075,657.555082,477.991412,469.052635,469.567179,469.592869,469.052635,471.765483,469.052635,470.622651,525.553195,643.719411,485.973088,469.052635,469.052635,794.42565,524.991466,472.718554
1,0,1,0,0,0,1,0,0,0,0,0,0,0,0,0,0,0,0,0,0,0,0,0,0,60,469.052635,NA,473.660075,469.096429,951.621581,704.357258,1272.003408,1859.664441,469.052635,500.762615,469.052635,874.751205,525.553195,840.418792,840.974462,2974.589939,527.481138,794.42565,802.615354,511.746777
1,0,0,1,0,0,1,0,0,0,0,0,0,0,0,0,0,0,0,0,0,0,0,0,0,60,469.052635,NA,473.660075,651.757633,476.707146,469.132007,469.179045,470.900884,469.052635,830.451405,469.052635,469.052635,525.553195,610.942916,473.35094,469.052635,469.092551,794.42565,506.37153,559.860401
1,0,0,0,1,0,1,0,0,0,0,0,0,0,0,0,0,0,0,0,0,0,0,0,0,60,469.052635,NA,473.660075,655.422137,482.440573,469.087321,469.545354,470.691484,469.052635,1246.418635,469.052635,469.058727,525.553195,647.300703,487.245372,469.052635,469.070022,794.42565,528.891255,660.951983
1,1,0,1,0,0,1,0,0,0,0,0,0,0,0,0,0,0,0,0,0,0,0,0,0,60,469.052635,NA,473.660075,656.303213,481.894315,469.122098,469.682756,470.85768,469.052635,826.421443,469.052635,470.628174,525.553195,647.969942,490.328475,469.052635,469.08981,794.42565,528.755192,538.092484
1,1,0,0,1,0,1,0,0,0,0,0,0,0,0,0,0,0,0,0,0,0,0,0,0,60,469.052635,NA,473.660075,646.996925,481.301242,469.087169,470.025025,470.756751,469.052635,1236.441638,469.052635,470.648997,525.553195,677.858729,504.50087,469.052635,469.072961,794.42565,554.926378,589.443517
1,0,1,1,0,0,1,0,0,0,0,0,0,0,0,0,0,0,0,0,0,0,0,0,0,60,469.052635,NA,473.660075,469.094762,959.825838,708.658368,1288.379542,1864.958308,469.052635,662.989825,469.052635,874.734883,525.553195,840.80348,840.979457,2991.580596,528.407645,794.42565,802.618009,547.728419
1,0,1,0,1,0,1,0,0,0,0,0,0,0,0,0,0,0,0,0,0,0,0,0,0,60,469.052635,NA,473.660075,469.0901,1002.992237,721.970645,1381.874216,1877.63073,469.052635,1150.366629,469.052635,874.794101,525.553195,842.231041,841.157748,3032.143421,531.42644,794.42565,802.625433,878.292396
1,1,0,0,0,0,1,0,0,0,0,0,0,0,0,0,0,0,0,0,0,0,0,0,0,120,469.052635,NA,473.660075,660.365967,470.518106,469.052635,469.641815,469.070582,469.052635,471.760418,469.052635,470.098238,525.553195,703.11392,487.559246,469.052635,469.052635,794.42565,522.835069,472.709635
1,0,1,0,0,0,1,0,0,0,0,0,0,0,0,0,0,0,0,0,0,0,0,0,0,120,469.052635,NA,473.660075,469.091031,1576.569596,623.289126,2805.242863,1619.524407,469.052635,500.817925,469.052635,855.820988,525.553195,967.385848,840.973963,2109.253238,511.1942,794.42565,802.62395,511.733618
1,0,0,1,0,0,1,0,0,0,0,0,0,0,0,0,0,0,0,0,0,0,0,0,0,120,469.052635,NA,473.660075,652.154151,478.253457,469.095195,469.248675,469.835947,469.052635,1053.657778,469.052635,469.052635,525.553195,662.804803,476.76875,469.052635,469.074078,794.42565,506.122134,574.947861
1,0,0,0,1,0,1,0,0,0,0,0,0,0,0,0,0,0,0,0,0,0,0,0,0,120,469.052635,NA,473.660075,658.859811,475.24821,469.052635,469.547535,469.089411,469.052635,1246.395094,469.052635,469.058636,525.553195,708.600985,487.992671,469.052635,469.052635,794.42565,526.231991,530.69716
1,1,0,1,0,0,1,0,0,0,0,0,0,0,0,0,0,0,0,0,0,0,0,0,0,120,469.052635,NA,473.660075,659.7149,477.30066,469.087936,469.819212,469.707028,469.052635,1045.965213,469.052635,470.119458,525.553195,709.076405,495.383969,469.052635,469.071602,794.42565,526.140972,543.968866
1,1,0,0,1,0,1,0,0,0,0,0,0,0,0,0,0,0,0,0,0,0,0,0,0,120,469.052635,NA,473.660075,656.745128,474.414138,469.052635,470.081843,469.102449,469.052635,1236.235196,469.052635,470.174345,525.553195,745.945954,506.706862,469.052635,469.052635,794.42565,546.979999,510.046894
1,0,1,1,0,0,1,0,0,0,0,0,0,0,0,0,0,0,0,0,0,0,0,0,0,120,469.052635,NA,473.660075,469.089684,1593.233372,626.656068,2826.57099,1630.525705,469.052635,693.877089,469.052635,855.862564,525.553195,968.043352,840.978963,2160.944277,511.895494,794.42565,802.626096,555.123352
1,0,1,0,1,0,1,0,0,0,0,0,0,0,0,0,0,0,0,0,0,0,0,0,0,120,469.052635,NA,473.660075,469.085017,1672.658535,639.64815,2912.282478,1670.690196,469.052635,1111.982484,469.052635,856.113747,525.553195,971.404633,841.157438,2351.16777,514.560374,794.42565,802.633529,892.098027
